.Xil/Vivado-7607-chipdev2.physik.uni-wuppertal.de/hw_ila_data_1/zip_work/waveform.vcd
$date
        2024-Feb-14 15:44:43
$end
$version
        Vivado v2020.2 (64-bit)
$end
$timescale
        1ps
$end
$scope module dut $end
$var reg 1 " mopshub_design_16bus_new_i/sem_controller_wrapp_0_status_heartbeat $end
$var reg 1 # mopshub_design_16bus_new_i/sem_controller_wrapp_0_status_initialization $end
$var reg 1 $ mopshub_design_16bus_new_i/sem_controller_wrapp_0_status_observation $end
$var reg 1 % mopshub_design_16bus_new_i/sem_controller_wrapp_0_status_correction $end
$var reg 1 & mopshub_design_16bus_new_i/sem_controller_wrapp_0_status_classification $end
$var reg 1 ' mopshub_design_16bus_new_i/sem_controller_wrapp_0_status_injection $end
$var reg 1 ( mopshub_design_16bus_new_i/sem_controller_wrapp_0_status_essential $end
$var reg 1 ) mopshub_design_16bus_new_i/sem_controller_wrapp_0_status_uncorrectable $end
$var reg 1 * _TRIGGER $end
$var reg 1 + _WINDOW $end
$var reg 1 , _GAP $end
$upscope $end
$enddefinitions $end
#0
$dumpvars
0"
0#
1$
0%
0&
0'
0(
0)
0*
1+
0,
$end
#108
1"
#109
0"
#189
1"
#190
0"
#310
1"
#311
0"
#391
1"
#392
0"
#512
1"
1*
#513
0"
#593
1"
#594
0"
#714
1"
#715
0"
#795
1"
#796
0"
#916
1"
#917
0"
#997
1"
#998
0"
